Random features
…
Generated observations in a list format, that can be used directly with Stan.

A tibble with individual-level features.

1.3 Running SCM

We run the SCM 15 times.

set.seed(3666)
d <- scm.1()
d[[1]] %>% head()

$df
# A tibble: 190 × 13
   ind_a ind_b  dyad  tau_ab   tau_ba gamma_a   rho_a gamma_b   rho_b  m_ab
   <int> <int> <int>   <dbl>    <dbl>   <dbl>   <dbl>   <dbl>   <dbl> <dbl>
 1     1     2     1 -0.133   0.0581    0.336 -0.0594  -0.182 -0.414  0.989
 2     1     3     2 -0.0235 -0.509     0.336 -0.0594  -0.693 -0.0737 1.55 
 3     1     4     3 -0.502   0.293     0.336 -0.0594  -0.283 -0.356  0.724
 4     1     5     4  0.522   0.151     0.336 -0.0594   0.249 -0.241  2.26 
 5     1     6     5 -0.125  -0.00451   0.336 -0.0594  -0.548  0.406  2.26 
 6     1     7     6  0.452   0.197     0.336 -0.0594  -0.238  0.241  3.42 
 7     1     8     7  0.638  -0.138     0.336 -0.0594  -0.168  0.456  5.10 
 8     1     9     8 -0.566  -0.295     0.336 -0.0594   0.545 -0.761  0.453
 9     1    10     9 -0.0214 -0.957     0.336 -0.0594   0.377  0.387  2.46 
10     1    11    10  1.11    0.228     0.336 -0.0594  -0.419  0.361  7.47 
# ℹ 180 more rows
# ℹ 3 more variables: m_ba <dbl>, y_ab <int>, y_ba <int>
…
